…
Vår bible_df ser alltså ut såhär:

```R
# A tibble: 32,357 × 4
   bible_text                       book_chapter verse_number book_chapter_numerical
   <chr>                            <fct>               <dbl> <chr>                 
 1 " <pre>                  Första… 01_Chapter_…            0 01_01                 
 2 "  1.  I begynnelsen skapade Gu… 01_Chapter_…            1 01_01                 
 3 "  2.  Och jorden var öde och t… 01_Chapter_…            2 01_01                 
 4 "  3.  Och Gud sade: »Varde lju… 01_Chapter_…            3 01_01                 
 5 "  4.  Och Gud såg att ljuset v… 01_Chapter_…            4 01_01                 
 6 "  5.  Och Gud kallade ljuset d… 01_Chapter_…            5 01_01                 
 7 "  6.  Och Gud sade: »Varde mit… 01_Chapter_…            6 01_01                 
 8 "  7.  Och Gud gjorde fästet, o… 01_Chapter_…            7 01_01                 
 9 "  8.  Och Gud kallade fästet h… 01_Chapter_…            8 01_01                 
10 "  9.  Och Gud sade: »Samle sig… 01_Chapter_…            9 01_01                 
# ℹ 32,347 more rows
# ℹ Use `print(n = ...)` to see more rows
```

Och vi kan lägga till lite metadata från `bible_books_chapters`, som ser ut såhär:

```R
# A tibble: 1,189 × 4
   book_chapter_numerical book_name                chapter_number del              
   <chr>                  <chr>                    <chr>          <chr>            
 1 01_01                  Första Mosebok (Genesis) " 1 Kapitlet"  Gamla testamentet
 2 01_02                  Första Mosebok (Genesis) " 2 Kapitlet"  Gamla testamentet
 3 01_03                  Första Mosebok (Genesis) " 3 Kapitlet"  Gamla testamentet
 4 01_04                  Första Mosebok (Genesis) " 4 Kapitlet"  Gamla testamentet
 5 01_05                  Första Mosebok (Genesis) " 5 Kapitlet"  Gamla testamentet
 6 01_06                  Första Mosebok (Genesis) " 6 Kapitlet"  Gamla testamentet
 7 01_07                  Första Mosebok (Genesis) " 7 Kapitlet"  Gamla testamentet
 8 01_08                  Första Mosebok (Genesis) " 8 Kapitlet"  Gamla testamentet
 9 01_09                  Första Mosebok (Genesis) " 9 Kapitlet"  Gamla testamentet
10 01_10                  Första Mosebok (Genesis) " 10 Kapitlet" Gamla testamentet
# ℹ 1,179 more rows
# ℹ Use `print(n = ...)` to see more rows
```
…
